\relax 
\providecommand\hyper@newdestlabel[2]{}
\providecommand\HyperFirstAtBeginDocument{\AtBeginDocument}
\HyperFirstAtBeginDocument{\ifx\hyper@anchor\@undefined
\global\let\oldcontentsline\contentsline
\gdef\contentsline#1#2#3#4{\oldcontentsline{#1}{#2}{#3}}
\global\let\oldnewlabel\newlabel
\gdef\newlabel#1#2{\newlabelxx{#1}#2}
\gdef\newlabelxx#1#2#3#4#5#6{\oldnewlabel{#1}{{#2}{#3}}}
\AtEndDocument{\ifx\hyper@anchor\@undefined
\let\contentsline\oldcontentsline
\let\newlabel\oldnewlabel
\fi}
\fi}
\global\let\hyper@last\relax 
\gdef\HyperFirstAtBeginDocument#1{#1}
\providecommand\HyField@AuxAddToFields[1]{}
\providecommand\HyField@AuxAddToCoFields[2]{}
\@writefile{toc}{\contentsline {section}{\numberline {1}Introduction}{2}{section.1}}
\@writefile{toc}{\contentsline {section}{\numberline {2}Installation}{3}{section.2}}
\@writefile{toc}{\contentsline {subsection}{\numberline {2.1}Windows}{3}{subsection.2.1}}
\@writefile{toc}{\contentsline {subsubsection}{\numberline {2.1.1}Plugin}{3}{subsubsection.2.1.1}}
\@writefile{toc}{\contentsline {subsubsection}{\numberline {2.1.2}Standalone}{3}{subsubsection.2.1.2}}
\@writefile{toc}{\contentsline {subsection}{\numberline {2.2}Linux}{3}{subsection.2.2}}
\@writefile{toc}{\contentsline {section}{\numberline {3}Usage}{4}{section.3}}
\@writefile{toc}{\contentsline {subsection}{\numberline {3.1}Standalone}{4}{subsection.3.1}}
\@writefile{toc}{\contentsline {subsubsection}{\numberline {3.1.1}Thematic report}{4}{subsubsection.3.1.1}}
\@writefile{toc}{\contentsline {subsubsection}{\numberline {3.1.2}One to many report}{6}{subsubsection.3.1.2}}
\@writefile{toc}{\contentsline {subsection}{\numberline {3.2}QGIS plugin}{9}{subsection.3.2}}
\@writefile{toc}{\contentsline {subsubsection}{\numberline {3.2.1}Thematic report}{9}{subsubsection.3.2.1}}
\@writefile{toc}{\contentsline {subsubsection}{\numberline {3.2.2}One to many report}{14}{subsubsection.3.2.2}}
\@writefile{toc}{\contentsline {subsubsection}{\numberline {3.2.3}Color templates}{19}{subsubsection.3.2.3}}
\@writefile{toc}{\contentsline {section}{\numberline {4}Developement}{20}{section.4}}
\@writefile{toc}{\contentsline {subsection}{\numberline {4.1}Developement}{20}{subsection.4.1}}
\@writefile{toc}{\contentsline {subsubsection}{\numberline {4.1.1}Structure}{20}{subsubsection.4.1.1}}
\@writefile{toc}{\contentsline {subsubsection}{\numberline {4.1.2}Creating new reports}{20}{subsubsection.4.1.2}}
\newlabel{LastPage}{{}{20}{}{page.20}{}}
\xdef\lastpage@lastpage{20}
\xdef\lastpage@lastpageHy{20}
